% Generated by IEEEtran.bst, version: 1.14 (2015/08/26)
\begin{thebibliography}{1}
\providecommand{\url}[1]{#1}
\csname url@samestyle\endcsname
\providecommand{\newblock}{\relax}
\providecommand{\bibinfo}[2]{#2}
\providecommand{\BIBentrySTDinterwordspacing}{\spaceskip=0pt\relax}
\providecommand{\BIBentryALTinterwordstretchfactor}{4}
\providecommand{\BIBentryALTinterwordspacing}{\spaceskip=\fontdimen2\font plus
\BIBentryALTinterwordstretchfactor\fontdimen3\font minus
  \fontdimen4\font\relax}
\providecommand{\BIBforeignlanguage}[2]{{%
\expandafter\ifx\csname l@#1\endcsname\relax
\typeout{** WARNING: IEEEtran.bst: No hyphenation pattern has been}%
\typeout{** loaded for the language `#1'. Using the pattern for}%
\typeout{** the default language instead.}%
\else
\language=\csname l@#1\endcsname
\fi
#2}}
\providecommand{\BIBdecl}{\relax}
\BIBdecl

\bibitem{https://histinf.blogs.upv.es/2013/12/18/raspberry-pi/}
L.~Contreras, \emph{Blog sobre Historia de la Informática}.\hskip 1em plus
  0.5em minus 0.4em\relax Historia de la Informática, 2014.

\bibitem{http://bibing.us.es/proyectos/abreproy/11253/fichero/memoria}
R.~G. Miguel, \emph{UNIDAD DE MEDIDA INERCIAL}.\hskip 1em plus 0.5em minus
  0.4em\relax Universidad de sevilla, 2006.

\bibitem{https://www.diarioelectronicohoy.com/blog/sensor-mpu6050}
V.~Garcia, \emph{Electrónica práctica aplicada}.\hskip 1em plus 0.5em minus
  0.4em\relax Electrónica, 2013.

\end{thebibliography}
